module github.com/Jerome-0609/microservice

go 1.14

require (
	github.com/dgrijalva/jwt-go v3.2.0+incompatible
	github.com/golang/protobuf v1.4.2
	github.com/lib/pq v1.5.2
	golang.org/x/crypto v0.0.0-20200510223506-06a226fb4e37
	google.golang.org/grpc v1.29.1
	google.golang.org/protobuf v1.23.0
)
